2018-09-01,1,20000
2018-09-02,1.001,20000
2018-09-03,1.002,20000
2018-09-04,1.003,20000
2018-09-05,1.004,20000
2018-09-06,1.005,20000
2018-09-07,1.006,20000
2018-09-08,1.007,20000
2018-09-09,1.008,20000
2018-09-10,1.009,20000
2018-09-11,1.01,20000
2018-09-12,1.011,20000
2018-09-13,1.012,20000
2018-09-14,1.013,20000
2018-09-15,1.014,20000
2018-09-16,1.015,20000
2018-09-17,1.016,20000
2018-09-18,1.017,20000
2018-09-19,1.018,20000
2018-09-20,1.019,20000
2018-09-21,1.02,20000
2018-09-22,1.021,20000
2018-09-23,1.022,20000
2018-09-24,1.023,20000
2018-09-25,1.024,20000
2018-09-26,1.025,20000
2018-09-27,1.026,20000
2018-09-28,1.027,20000
2018-09-29,1.028,20000
2018-09-30,1.029,20000
2018-10-01,1.03,20000
2018-10-02,1.031,20000
2018-10-03,1.032,20000
2018-10-04,1.033,20000
2018-10-05,1.034,20000
2018-10-06,1.035,20000
2018-10-07,1.036,20000
2018-10-08,1.037,20000
2018-10-09,1.038,20000
2018-10-10,1.039,20000
2018-10-11,1.04,20000
2018-10-12,1.041,20000
2018-10-13,1.042,20000
2018-10-14,1.043,20000
2018-10-15,1.044,20000
2018-10-16,1.045,20000
2018-10-17,1.046,20000
2018-10-18,1.047,20000
2018-10-19,1.048,20000
2018-10-20,1.049,20000
2018-10-21,1.05,20000
2018-10-22,1.051,20000
2018-10-23,1.052,20000
2018-10-24,1.053,20000
2018-10-25,1.054,20000
2018-10-26,1.055,20000
2018-10-27,1.056,20000
2018-10-28,1.057,20000
2018-10-29,1.058,20000
2018-10-30,1.059,20000
2018-10-31,1.06,20000
2018-11-01,1.061,20000
2018-11-02,1.062,20000
2018-11-03,1.063,20000
2018-11-04,1.064,20000
2018-11-05,1.065,20000
2018-11-06,1.066,20000
2018-11-07,1.067,20000
2018-11-08,1.068,20000
2018-11-09,1.069,20000
2018-11-10,1.07,20000
2018-11-11,1.071,20000
2018-11-12,1.072,20000
2018-11-13,1.073,20000
2018-11-14,1.074,20000
2018-11-15,1.075,20000
2018-11-16,1.076,20000
2018-11-17,1.077,20000
2018-11-18,1.078,20000
2018-11-19,1.079,20000
2018-11-20,1.08,20000
2018-11-21,1.081,20000
2018-11-22,1.082,20000
2018-11-23,1.083,20000
2018-11-24,1.084,20000
2018-11-25,1.085,20000
2018-11-26,1.086,20000
2018-11-27,1.087,20000
2018-11-28,1.088,20000
2018-11-29,1.089,20000
2018-11-30,1.09,20000
2018-12-01,1.091,20000
2018-12-02,1.092,20000
2018-12-03,1.093,20000
2018-12-04,1.094,20000
2018-12-05,1.095,20000
2018-12-06,1.096,20000
2018-12-07,1.097,20000
2018-12-08,1.098,20000
2018-12-09,1.099,20000
2018-12-10,1.1,20000
2018-12-11,1.101,20000
2018-12-12,1.102,20000
2018-12-13,1.103,20000
2018-12-14,1.104,20000
2018-12-15,1.105,20000
2018-12-16,1.106,20000
2018-12-17,1.107,20000
2018-12-18,1.108,20000
2018-12-19,1.109,20000
2018-12-20,1.11,20000
2018-12-21,1.111,20000
2018-12-22,1.112,20000
2018-12-23,1.113,20000
2018-12-24,1.114,20000
2018-12-25,1.115,20000
2018-12-26,1.116,20000
2018-12-27,1.117,20000
2018-12-28,1.118,20000
2018-12-29,1.119,20000
2018-12-30,1.12,20000
2018-12-31,1.121,20000
2019-01-01,1.122,20000
2019-01-02,1.123,20000
2019-01-03,1.124,20000
2019-01-04,1.125,20000
2019-01-05,1.126,20000
2019-01-06,1.127,20000
2019-01-07,1.128,20000
2019-01-08,1.129,20000
2019-01-09,1.13,20000
2019-01-10,1.131,20000
2019-01-11,1.132,20000
2019-01-12,1.133,20000
2019-01-13,1.134,20000
2019-01-14,1.135,20000
2019-01-15,1.136,20000
2019-01-16,1.137,20000
2019-01-17,1.138,20000
2019-01-18,1.139,20000
2019-01-19,1.14,20000
2019-01-20,1.141,20000
2019-01-21,1.142,20000
2019-01-22,1.143,20000
2019-01-23,1.144,20000
2019-01-24,1.145,20000
2019-01-25,1.146,20000
2019-01-26,1.147,20000
2019-01-27,1.148,20000
2019-01-28,1.149,20000
2019-01-29,1.15,20000
2019-01-30,1.151,20000
2019-01-31,1.152,20000
2019-02-01,1.153,20000
2019-02-02,1.154,20000
2019-02-03,1.155,20000
2019-02-04,1.156,20000
2019-02-05,1.157,20000
2019-02-06,1.158,20000
2019-02-07,1.159,20000
2019-02-08,1.16,20000
2019-02-09,1.161,20000
2019-02-10,1.162,20000
2019-02-11,1.163,20000
2019-02-12,1.164,20000
2019-02-13,1.165,20000
2019-02-14,1.166,20000
2019-02-15,1.167,20000
2019-02-16,1.168,20000
2019-02-17,1.169,20000
2019-02-18,1.17,20000
2019-02-19,1.171,20000
2019-02-20,1.172,20000
2019-02-21,1.173,20000
2019-02-22,1.174,20000
2019-02-23,1.175,20000
2019-02-24,1.176,20000
2019-02-25,1.177,20000
2019-02-26,1.178,20000
2019-02-27,1.179,20000
2019-02-28,1.18,20000
2019-03-01,1.181,20000
2019-03-02,1.182,20000
2019-03-03,1.183,20000
2019-03-04,1.184,20000
2019-03-05,1.185,20000
2019-03-06,1.186,20000
2019-03-07,1.187,20000
2019-03-08,1.188,20000
2019-03-09,1.189,20000
2019-03-10,1.19,20000
2019-03-11,1.191,20000
2019-03-12,1.192,20000
2019-03-13,1.193,20000
2019-03-14,1.194,20000
2019-03-15,1.195,20000
2019-03-16,1.196,20000
2019-03-17,1.197,20000
2019-03-18,1.198,20000
2019-03-19,1.199,20000
2019-03-20,1.2,20000
2019-03-21,1.201,20000
2019-03-22,1.202,20000
2019-03-23,1.203,20000
2019-03-24,1.204,20000
2019-03-25,1.205,20000
2019-03-26,1.206,20000
2019-03-27,1.207,20000
2019-03-28,1.208,20000
2019-03-29,1.209,20000
2019-03-30,1.21,20000
2019-03-31,1.211,20000
2019-04-01,1.212,20000
2019-04-02,1.213,20000
2019-04-03,1.214,20000
2019-04-04,1.215,20000
2019-04-05,1.216,20000
2019-04-06,1.217,20000
2019-04-07,1.218,20000
2019-04-08,1.219,20000
2019-04-09,1.22,20000
2019-04-10,1.221,20000
2019-04-11,1.222,20000
2019-04-12,1.223,20000
2019-04-13,1.224,20000
2019-04-14,1.225,20000
2019-04-15,1.226,20000
2019-04-16,1.227,20000
2019-04-17,1.228,20000
2019-04-18,1.229,20000
2019-04-19,1.23,20000
2019-04-20,1.231,20000
2019-04-21,1.232,20000
2019-04-22,1.233,20000
2019-04-23,1.234,20000
2019-04-24,1.235,20000
2019-04-25,1.236,20000
2019-04-26,1.237,20000
2019-04-27,1.238,20000
2019-04-28,1.239,20000
2019-04-29,1.24,20000
2019-04-30,1.241,20000
2019-05-01,1.242,20000
2019-05-02,1.243,20000
2019-05-03,1.244,20000
2019-05-04,1.245,20000
2019-05-05,1.246,20000
2019-05-06,1.247,20000
2019-05-07,1.248,20000
2019-05-08,1.249,20000
2019-05-09,1.25,20000
2019-05-10,1.251,20000
2019-05-11,1.252,20000
2019-05-12,1.253,20000
2019-05-13,1.254,20000
2019-05-14,1.255,20000
2019-05-15,1.256,20000
2019-05-16,1.257,20000
2019-05-17,1.258,20000
2019-05-18,1.259,20000
2019-05-19,1.26,20000
2019-05-20,1.261,20000
2019-05-21,1.262,20000
2019-05-22,1.263,20000
2019-05-23,1.264,20000
2019-05-24,1.265,20000
